// Jest Snapshot v1, https://goo.gl/fbAQLP

exports[`<MenuButton/> Tests 2. Renders MenuButton correctly without crashing 1`] = `
<div>
  <div
    class="button-css"
  />
</div>
`;

exports[`<MenuButton/> Tests 3. Renders MenuButton with name Projects without crashing 1`] = `
<div>
  <div
    class="button-css"
  >
    Projects
  </div>
</div>
`;
