// Jest Snapshot v1, https://goo.gl/fbAQLP

exports[`<Search/> Tests 2. Renders Search correctly without crashing 1`] = `
<div>
  <div>
    <input
      id="autocomplete"
      placeholder="Search Nodes"
      spellcheck="false"
      type="text"
      value=""
    />
  </div>
</div>
`;
