name,programme,email,staffSiteLink,siteName,siteLink,mediaLink,bio,role,collaborators,school,project,tags
Miriam Ross,Film,Miriam.Ross@vuw.ac.nz,https://www.victoria.ac.nz/seftms/about/staff/miriam-ross,,https://miriamruthross.wordpress.com/,https://www.victoria.ac.nz/images/staffpics/miriam-ross.jpg,"Miriam's research areas lie in global cinema dynamics with an emphasis on production, distribution and exhibition. She is particularly interested in new technologies and their affect on filmmaking and circulation.",Academic Staff, ,Humanities and Social Sciences,Trash Praxis,python
Lohit Petikam,Engineering and Computer Science,,https://ecs.victoria.ac.nz/Main/GradLohitPetikam,,https://ecs.victoria.ac.nz/Main/Curiosity-thekeytonewideas,https://www.victoria.ac.nz/__data/assets/image/0003/345567/Lohit-Petikam-Profile.jpg,,Masters Student,Taehyun Rhee,Central Service Unit,"Colliding Conversations 3,Yasawa Island Virtual Tourism",java
Taehyun Rhee,Computer Graphics,taehyun.rhee@ecs.vuw.ac.nz,http://ecs.victoria.ac.nz/Main/TaehyunRhee,,https://www.dreamflux.io/,http://ecs.victoria.ac.nz/foswiki/pub/Main/TaehyunRhee/TaehyunRhee.jpg,"Taehyun Rhee is an Associate Professor of Faculty of Engineering and Computer Science, Deputy Director of Computational Media Innovation Centre (CMIC), and a founder of Mixed Reality startup dreamflux.",Academic Staff,"Neil Dodgson, Lohit Petikam",Engineering and Computer Science,"MRX,Dream Flux","python,java"
Neil Dodgson,Computer Graphics,neil.dodgson@vuw.ac.nz,http://ecs.victoria.ac.nz/Main/NeilDodgson,,http://neildodgson.com/,http://ecs.victoria.ac.nz/foswiki/pub/Main/NeilDodgson/NeilDodgson.jpg,"Neil Dodgson was, for twenty years, head of the Graphics & Interaction Research Group at the University of Cambridge Computer Laboratory. In 2016, he returned to New Zealand to be Programme Director of Victoria's Computer Graphics Programme and to bring skills that complemented the already strong computer graphics research group in Victoria's School of Engineering & Computer Science.",Academic Staff,"Miriam Ross, Taehyun Rhee",Central Service Unit,,python
Serdar Aydin,Architecture,Serdar.Aydin@vuw.ac.nz,https://www.victoria.ac.nz/architecture/research/current-phd-research/serdar-aydin,,https://www.researchgate.net/profile/Serdar_Aydin2,https://www.victoria.ac.nz/__data/assets/image/0011/859331/Serdar-Aydin.jpg,"Serdar is a design researcher at DARA and a PhD Cand. at the School of Architecture. His design-research thesis focuses on translating Kashgar heritage, westernmost city in China, into game platforms where engaging experiences are designed and developed with regards to digital realities. ",PhD Student, ,Architecture,,java
Ryan Sumner,Computer Graphics,,https://ecs.victoria.ac.nz/Main/GradRyanSumner,,http://researcharchive.vuw.ac.nz/xmlui/handle/10063/6343,https://media.licdn.com/mpr/mpr/shrinknp_200_200/AAEAAQAAAAAAAAsYAAAAJDhkNjZhM2NjLTk1MGMtNDQ1Yy1iOTlhLWY2ZmRlYTI4MTM3Mw.jpg,,Masters Student,,Engineering and Computer Science,,"python,java"
Andre Geldenhuis,Learning and Research Technology Team,andre.geldenhuis@vuw.ac.nz,https://www.victoria.ac.nz/its/about/learning-and-research-technology-team,,,https://farm5.staticflickr.com/4569/38167452934_65768aa30f_k.jpg,Andre works with academics and post-graduate students to deliver high-technology research and teaching outcomes and solutions.,Professional Staff, ,Engineering and Computer Science,"Colliding Conversations 4,Virtual World Lab",python
Jasim Azhar,Architecture,jasimazhar@hotmail.com,https://www.victoria.ac.nz/architecture/research/current-phd-research/jasim-azhar,,,,,PhD Student,,Architecture,,java
Claudia van Velthooven ,Architecture,claudia.vanvelthooven@live.com,https://www.victoria.ac.nz/explore/postgraduate-programmes/master-of-architecture-professional/people#claudia-van-velthooven,,,https://www.victoria.ac.nz/__data/assets/image/0008/821762/claudia-van-velthooven.jpg,,Masters Student,,Victoria Business School,Yasawa Island Virtual Tourism,"python,java"
Stuart Haselden,Directorate,Stuart.Haselden@vuw.ac.nz,https://www.victoria.ac.nz/its/about#directorate,,,https://www.victoria.ac.nz/its/images/Stu-Haselden.jpg,,Professional Staff,,Other,Colliding Conversations 3,python
Scott Meekings,Architecture,,http://researcharchive.vuw.ac.nz/xmlui/handle/10063/6613,,https://scottmeekings.com/,https://static1.squarespace.com/static/57bba4fec534a51bf9013b32/t/57bcfc01e58c6235ea029169/1472003082676/?format=300w,,Masters Student,,Architecture,,java
James Holth,Architecture,james.r.holth@gmail.com,,,http://www.nzvrara.nz/individuals/james-holth/,http://www.nzvrara.nz/wp-content/uploads/2016/10/13346301_1093667540691662_6547180218512730850_o-1024x1024.jpg,"James Holth is a current student of a Master of Architecture (Professional) degree. He has a strong interest in Virtual Reality and how architecture can use new technologies whilst working in a co-disciplinary fashion with existing digital fields, such as the game industry. His thesis explores the use of virtual reality as an instrument to effect the perception of inhabitants within a digital world.",Masters Student,,Engineering and Computer Science,,"python,java"
