{
  "builders": [
    {
      "type": "docker",
      "image": "python:3-slim",
      "commit": "true"
    }
  ],
  "provisioners": [
    {
      "type": "shell",
      "inline": ["mkdir /tmp/provision/", "mkdir /tmp/provision/.git"]
    },
    {
      "type": "file",
      "source": ".git/",
      "destination": "/tmp/provision/.git/"
    },
    {
      "type": "file",
      "source": ".pre-commit-config.yaml",
      "destination": "/tmp/provision/.pre-commit-config.yaml"
    },
    {
      "type": "shell",
      "inline": [
        "pip install pre-commit",
        "apt-get update && apt-get install -y git",
        "cd /tmp/provision/",
        "pre-commit install-hooks"
      ]
    }
  ],
  "post-processors": [
    [
      {
        "type": "docker-tag",
        "repository": "registry.gitlab.com/connected-worlds/connected-worlds/pre-commit",
        "tag": "latest"
      }
    ]
  ]
}
